tfrmt – Analysis Results Datasets
…
{cards} includes a helper function shuffle_ard() to transform native {cards} output to display-ready data

This is also available as an argument .shuffle in ard_stack()

library(cards)

pharmaverseadam::adsl |> 
  ard_categorical(
    by = TRT01A,
    variables = c("AGEGR1","SEX")
  ) |> 
  shuffle_ard()

# A tibble: 48 × 6
   TRT01A         variable label context     stat_name   stat
   <chr>          <chr>    <chr> <chr>       <chr>      <dbl>
 1 Placebo        AGEGR1   >64   categorical n         72    
 2 Placebo        AGEGR1   >64   categorical N         86    
 3 Placebo        AGEGR1   >64   categorical p          0.837
 4 Placebo        AGEGR1   18-64 categorical n         14    
 5 Placebo        AGEGR1   18-64 categorical N         86    
 6 Placebo        AGEGR1   18-64 categorical p          0.163
 7 Screen Failure AGEGR1   >64   categorical n         43    
 8 Screen Failure AGEGR1   >64   categorical N         52    
 9 Screen Failure AGEGR1   >64   categorical p          0.827
10 Screen Failure AGEGR1   18-64 categorical n          9    
# ℹ 38 more rows
…
